<svg width="147" height="140" viewBox="0 0 147 140" fill="none" xmlns="http://www.w3.org/2000/svg">
<path opacity="0.2" d="M-2.8 0.599992C-35 0.599992 -52.8 31.4 -52.8 70.2C-52.8 109 -35 139.8 -2.8 139.8C29.2 139.8 47 109 47 70.2C47 31.4 29.2 0.599992 -2.8 0.599992ZM-6 7.79999C23.4 7.79999 32.2 57 32.2 80.8C32.2 113.2 19.6 132.6 0.200001 132.6C-29.8 132.6 -37.8 83 -37.8 59.6C-37.8 27.2 -25.2 7.79999 -6 7.79999ZM99.5891 0.599992C82.3891 1.2 68.1891 12.4 62.9891 29.8L66.1891 30.6C70.7891 19.8 82.1891 12.6 95.1891 12.6C108.589 12.6 120.789 20.2 121.189 34C121.589 48.8 108.589 63 90.9891 64.8L84.1891 65.4V70H89.1891C114.189 70 131.189 82.8 131.189 103.2C131.189 119.8 120.189 132.4 102.589 132.4C84.3891 132.4 70.3891 119 71.1891 102.2L54.5891 109.6C57.9891 128 75.3891 139.8 99.3891 139.8C130.189 139.8 146.389 120 146.389 99.2C146.389 80 132.389 67 108.989 64.2C126.189 57.4 135.189 43.2 135.189 29.6C135.189 10.8 117.589 -1.23978e-05 99.5891 0.599992Z" fill="#FFFFFF"/>
</svg>
