{
  "kind": "collectionType",
  "collectionName": "countries",
  "info": {
    "name": "Country",
    "description": ""
  },
  "options": {
    "populateCreatorFields": false,
    "increments": false,
    "timestamps": false,
    "draftAndPublish": false
  },
  "attributes": {
    "name": {
      "type": "string",
      "required": true,
      "unique": true,
      "maxLength": 255
    },
    "code": {
      "type": "string",
      "required": true,
      "unique": true,
      "maxLength": 2,
      "minLength": 2
    }
  }
}
