<svg width="142" height="140" viewBox="0 0 142 140" fill="none" xmlns="http://www.w3.org/2000/svg">
<path opacity="0.4" d="M-2.8 0.599992C-35 0.599992 -52.8 31.4 -52.8 70.2C-52.8 109 -35 139.8 -2.8 139.8C29.2 139.8 47 109 47 70.2C47 31.4 29.2 0.599992 -2.8 0.599992ZM-6 7.79999C23.4 7.79999 32.2 57 32.2 80.8C32.2 113.2 19.6 132.6 0.200001 132.6C-29.8 132.6 -37.8 83 -37.8 59.6C-37.8 27.2 -25.2 7.79999 -6 7.79999ZM97.5609 0.599992C75.3609 0.599992 61.7609 15 56.3609 31.2L58.9609 32.4C64.9609 22 73.9609 14 90.9609 14C109.361 14 119.761 23.8 119.761 41.8C119.761 58.2 107.361 75.4 81.3609 101.6L53.7609 129.6V137H139.761L141.961 103.2H139.361C132.361 123.4 129.561 125.6 112.761 125.6H66.5609C103.361 88.6 135.161 66.8 135.161 38C135.161 15 120.961 0.599992 97.5609 0.599992Z" fill="#FFFFFF"/>
</svg>
