<svg width="159" height="140" viewBox="0 0 159 140" fill="none" xmlns="http://www.w3.org/2000/svg">
<path opacity="0.4" d="M-2.8 0.599992C-35 0.599992 -52.8 31.4 -52.8 70.2C-52.8 109 -35 139.8 -2.8 139.8C29.2 139.8 47 109 47 70.2C47 31.4 29.2 0.599992 -2.8 0.599992ZM-6 7.79999C23.4 7.79999 32.2 57 32.2 80.8C32.2 113.2 19.6 132.6 0.200001 132.6C-29.8 132.6 -37.8 83 -37.8 59.6C-37.8 27.2 -25.2 7.79999 -6 7.79999ZM135.109 0.599992H129.709L57.3094 95V99.6H121.109V118.6C121.109 131.2 111.509 133.8 96.9094 134.4V137H153.109V134.4C140.709 133.8 135.109 131.2 135.109 118.6V99.6H158.709V93.2H135.109V0.599992ZM121.109 23V93.2H66.7094L121.109 23Z" fill="#FFFFFF"/>
</svg>
